%YAML 1.1
%TAG !u! tag:unity3d.com,2011:
--- !u!114 &11400000
MonoBehaviour:
  m_ObjectHideFlags: 0
  m_CorrespondingSourceObject: {fileID: 0}
  m_PrefabInstance: {fileID: 0}
  m_PrefabAsset: {fileID: 0}
  m_GameObject: {fileID: 0}
  m_Enabled: 1
  m_EditorHideFlags: 0
  m_Script: {fileID: 11500000, guid: 970b83a99f8ca1c4cb17c91832282e34, type: 3}
  m_Name: MiscDataSO
  m_EditorClassIdentifier: 
  bombLeftBoundary: -25
  moveLeftSpeed: 10
  spawnManagerStartDelay: 2
  spawnManagerSpawnInterval: 2
  spawnManagerSpawnLocationX: 30
  spawnManagerSpawnLocationYMax: 1
  spawnManagerSpawnLocationYMin: -7
  objectsToSpawn:
  - {fileID: 11368019182273911, guid: 1db47c5ef25154fb1806822c25335042, type: 3}
  - {fileID: 8579601760348528630, guid: 0752829c2e3ba4cb78049ff40067a24f, type: 3}
