%YAML 1.1
%TAG !u! tag:unity3d.com,2011:
--- !u!114 &11400000
MonoBehaviour:
  m_ObjectHideFlags: 0
  m_CorrespondingSourceObject: {fileID: 0}
  m_PrefabInstance: {fileID: 0}
  m_PrefabAsset: {fileID: 0}
  m_GameObject: {fileID: 0}
  m_Enabled: 1
  m_EditorHideFlags: 0
  m_Script: {fileID: 11500000, guid: 27e8b8ad41577db4bb9a83375b552f34, type: 3}
  m_Name: SoundsDataSO
  m_EditorClassIdentifier: 
  explosionSound: {fileID: 8300000, guid: 774ebc5c074ce4695b7cc310fbd44087, type: 3}
  moneySound: {fileID: 8300000, guid: af9f934eb4288464eb120a5857921cc3, type: 3}
  playerSound: {fileID: 8300000, guid: ccb9b31174a3a43709a113a9c7cf4252, type: 3}
