%YAML 1.1
%TAG !u! tag:unity3d.com,2011:
--- !u!114 &11400000
MonoBehaviour:
  m_ObjectHideFlags: 0
  m_CorrespondingSourceObject: {fileID: 0}
  m_PrefabInstance: {fileID: 0}
  m_PrefabAsset: {fileID: 0}
  m_GameObject: {fileID: 0}
  m_Enabled: 1
  m_EditorHideFlags: 0
  m_Script: {fileID: 11500000, guid: 18755732449384f879d90ef55186587b, type: 3}
  m_Name: Level02SO
  m_EditorClassIdentifier: 
  levelName: Level 02
  numberOfEnemies: 1
  hasPowerUps: 0
  enemySpawnDelay: 2
  enemyAngerDelay: 40
  enemyShotDelay: 1.5
  enemyShotSpeed: 5
  enemySpeed: 2
  powerUpMinimumWait: 3
  powerUpMaximumWait: 10
