[api-updater (non-obsolete-error-filter)] 01/01/2021 11:34:09 : Starting C:/Program Files/Unity/Editors/2020.2.1f1/Editor/Data/Tools/ScriptUpdater/APIUpdater.NonObsoleteApiUpdaterDetector.exe
[api-updater (non-obsolete-error-filter)] 
----------------------------------
jit/startup time      : 1030.8574ms
moved types parse time: 65ms
candidates parse time : 1ms
C# parse time         : 802ms
candidates check time : 42ms
console write time    : 0ms

