%YAML 1.1
%TAG !u! tag:unity3d.com,2011:
--- !u!114 &11400000
MonoBehaviour:
  m_ObjectHideFlags: 0
  m_CorrespondingSourceObject: {fileID: 0}
  m_PrefabInstance: {fileID: 0}
  m_PrefabAsset: {fileID: 0}
  m_GameObject: {fileID: 0}
  m_Enabled: 1
  m_EditorHideFlags: 0
  m_Script: {fileID: 11500000, guid: 3a63823a7110cc2499c606f4e0463aa6, type: 3}
  m_Name: CubeDataSO
  m_EditorClassIdentifier: 
  angle: 10
  rotationSpeed: 10
  position: {x: 1, y: 3, z: 4}
